   1               		.file	"main.c"
   2               	__SREG__ = 0x3f
   3               	__SP_H__ = 0x3e
   4               	__SP_L__ = 0x3d
   5               	__CCP__  = 0x34
   6               	__tmp_reg__ = 0
   7               	__zero_reg__ = 1
  15               	.Ltext0:
  16               	.global	main
  18               	main:
  19               	.LFB6:
  20               	.LM1:
  21               	/* prologue: function */
  22               	/* frame size = 0 */
  23               	.LM2:
  24 0000 8FEF      		ldi r24,lo8(-1)
  25 0002 87BB      		out 55-32,r24
  26               	.LM3:
  27 0004 18BA      		out 56-32,__zero_reg__
  28               	.LM4:
  29 0006 74E8      		ldi r23,lo8(-124)
  30               	.LM5:
  31 0008 61E0      		ldi r22,lo8(1)
  32               	.LBB24:
  33               	.LBB25:
  34               	.LBB26:
  35               	.LBB27:
  36               	.LM6:
  37 000a 28EC      		ldi r18,lo8(200)
  38 000c 30E0      		ldi r19,hi8(200)
  39               	.LBE27:
  40               	.LBE26:
  41               	.LBE25:
  42               	.LBE24:
  43               	.LBB31:
  44               	.LBB32:
  45               	.LBB33:
  46               	.LBB34:
  47 000e 40E2      		ldi r20,lo8(20000)
  48 0010 5EE4      		ldi r21,hi8(20000)
  49               	.LVL0:
  50               	.L8:
  51               	.LBE34:
  52               	.LBE33:
  53               	.LBE32:
  54               	.LBE31:
  55               	.LM7:
  56 0012 76B9      		out 38-32,r23
  57               	.LM8:
  58 0014 3D9A      		sbi 39-32,5
  59               	.LM9:
  60 0016 87B1      		in r24,39-32
  61               	.LVL1:
  62 0018 8C7F      		andi r24,lo8(-4)
  63 001a 87B9      		out 39-32,r24
  64               	.LM10:
  65 001c 369A      		sbi 38-32,6
  66               	.L2:
  67               	.LM11:
  68 001e 3699      		sbic 38-32,6
  69 0020 00C0      		rjmp .L2
  70               	.LM12:
  71 0022 85B1      		in r24,37-32
  72 0024 90E0      		ldi r25,lo8(0)
  73               	.LM13:
  74 0026 16B8      		out 38-32,__zero_reg__
  75               	.LM14:
  76 0028 8831      		cpi r24,24
  77 002a 9105      		cpc r25,__zero_reg__
  78               	.LVL2:
  79 002c 00F0      		brlo .L3
  80               	.LM15:
  81 002e 18BA      		out 56-32,__zero_reg__
  82 0030 88EE      		ldi r24,lo8(1000)
  83 0032 93E0      		ldi r25,hi8(1000)
  84               	.LVL3:
  85               	.L4:
  86               	.LBB38:
  87               	.LBB39:
  88               	.LBB40:
  89               	.LBB41:
  90               	.LM16:
  91 0034 F901      		movw r30,r18
  92               	.LVL4:
  93               	/* #APP */
  94               	 ;  105 "e:/winavr-20100110/lib/gcc/../../avr/include/util/delay_basic.h" 1
  95 0036 3197      		1: sbiw r30,1
  96 0038 01F4      		brne 1b
  97               	 ;  0 "" 2
  98               	/* #NOAPP */
  99               	.LBE41:
 100               	.LBE40:
 101               	.LM17:
 102 003a 0197      		sbiw r24,1
 103               	.LM18:
 104 003c 01F4      		brne .L4
 105 003e 00C0      		rjmp .L5
 106               	.LVL5:
 107               	.L3:
 108               	.LBE39:
 109               	.LBE38:
 110               	.LM19:
 111 0040 4797      		sbiw r24,23
 112 0042 01F0      		breq .L6
 113               	.LM20:
 114 0044 68BB      		out 56-32,r22
 115 0046 88EE      		ldi r24,lo8(1000)
 116 0048 93E0      		ldi r25,hi8(1000)
 117               	.LVL6:
 118               	.L7:
 119               	.LBB42:
 120               	.LBB30:
 121               	.LBB29:
 122               	.LBB28:
 123               	.LM21:
 124 004a F901      		movw r30,r18
 125               	.LVL7:
 126               	/* #APP */
 127               	 ;  105 "e:/winavr-20100110/lib/gcc/../../avr/include/util/delay_basic.h" 1
 128 004c 3197      		1: sbiw r30,1
 129 004e 01F4      		brne 1b
 130               	 ;  0 "" 2
 131               	/* #NOAPP */
 132               	.LBE28:
 133               	.LBE29:
 134               	.LM22:
 135 0050 0197      		sbiw r24,1
 136               	.LM23:
 137 0052 01F4      		brne .L7
 138 0054 00C0      		rjmp .L5
 139               	.LVL8:
 140               	.L6:
 141               	.LBE30:
 142               	.LBE42:
 143               	.LM24:
 144 0056 18BA      		out 56-32,__zero_reg__
 145               	.LVL9:
 146               	.L5:
 147               	.LBB43:
 148               	.LBB37:
 149               	.LBB36:
 150               	.LBB35:
 151               	.LM25:
 152 0058 CA01      		movw r24,r20
 153               	.LVL10:
 154               	/* #APP */
 155               	 ;  105 "e:/winavr-20100110/lib/gcc/../../avr/include/util/delay_basic.h" 1
 156 005a 0197      		1: sbiw r24,1
 157 005c 01F4      		brne 1b
 158               	 ;  0 "" 2
 159               	/* #NOAPP */
 160 005e 00C0      		rjmp .L8
 161               	.LBE35:
 162               	.LBE36:
 163               	.LBE37:
 164               	.LBE43:
 165               	.LFE6:
 191               	.Letext0:
DEFINED SYMBOLS
                            *ABS*:00000000 main.c
C:\Users\ABHI~1\AppData\Local\Temp/ccZXPGaw.s:2      *ABS*:0000003f __SREG__
C:\Users\ABHI~1\AppData\Local\Temp/ccZXPGaw.s:3      *ABS*:0000003e __SP_H__
C:\Users\ABHI~1\AppData\Local\Temp/ccZXPGaw.s:4      *ABS*:0000003d __SP_L__
C:\Users\ABHI~1\AppData\Local\Temp/ccZXPGaw.s:5      *ABS*:00000034 __CCP__
C:\Users\ABHI~1\AppData\Local\Temp/ccZXPGaw.s:6      *ABS*:00000000 __tmp_reg__
C:\Users\ABHI~1\AppData\Local\Temp/ccZXPGaw.s:7      *ABS*:00000001 __zero_reg__
C:\Users\ABHI~1\AppData\Local\Temp/ccZXPGaw.s:18     .text:00000000 main

NO UNDEFINED SYMBOLS
